\relax 
\providecommand\hyper@newdestlabel[2]{}
\providecommand\HyperFirstAtBeginDocument{\AtBeginDocument}
\HyperFirstAtBeginDocument{\ifx\hyper@anchor\@undefined
\global\let\oldcontentsline\contentsline
\gdef\contentsline#1#2#3#4{\oldcontentsline{#1}{#2}{#3}}
\global\let\oldnewlabel\newlabel
\gdef\newlabel#1#2{\newlabelxx{#1}#2}
\gdef\newlabelxx#1#2#3#4#5#6{\oldnewlabel{#1}{{#2}{#3}}}
\AtEndDocument{\ifx\hyper@anchor\@undefined
\let\contentsline\oldcontentsline
\let\newlabel\oldnewlabel
\fi}
\fi}
\global\let\hyper@last\relax 
\gdef\HyperFirstAtBeginDocument#1{#1}
\providecommand\HyField@AuxAddToFields[1]{}
\providecommand\HyField@AuxAddToCoFields[2]{}
\catcode `"\active 
\catcode `<\active 
\catcode `>\active 
\@nameuse{es@quoting}
\pgfsyspdfmark {pgfid2}{36678252}{-988281}
\pgfsyspdfmark {pgfid1}{4736286}{47362867}
\babel@aux{spanish}{}
\citation{grewal2011kalman}
\@writefile{toc}{\contentsline {section}{\numberline {1}Entornos}{2}{section.1}\protected@file@percent }
\@writefile{toc}{\contentsline {subsection}{\numberline {1.1}Un ejemplo de subsecci\IeC {\'o}n}{2}{subsection.1.1}\protected@file@percent }
\@writefile{toc}{\contentsline {section}{\numberline {2}Citas}{2}{section.2}\protected@file@percent }
\@writefile{toc}{\contentsline {section}{\numberline {3}Ecuaciones}{3}{section.3}\protected@file@percent }
\newlabel{eq:H(s)}{{1}{3}{Ecuaciones}{equation.3.1}{}}
\@writefile{toc}{\contentsline {section}{\numberline {4}Tablas}{3}{section.4}\protected@file@percent }
\@writefile{lof}{\contentsline {figure}{\numberline {1}{\ignorespaces Un ejemplo de figura (top)}}{4}{figure.1}\protected@file@percent }
\newlabel{fig:wemos1}{{1}{4}{Un ejemplo de figura (top)}{figure.1}{}}
\@writefile{lof}{\contentsline {figure}{\numberline {2}{\ignorespaces Un ejemplo de figura (bottom)}}{5}{figure.2}\protected@file@percent }
\newlabel{fig:wemos2}{{2}{5}{Un ejemplo de figura (bottom)}{figure.2}{}}
\@input{articles/final.aux}
