\babel@toc {spanish}{}
\contentsline {section}{\numberline {1}Entornos}{2}{section.1}% 
\contentsline {subsection}{\numberline {1.1}Un ejemplo de subsecci\IeC {\'o}n}{2}{subsection.1.1}% 
\contentsline {section}{\numberline {2}Citas}{2}{section.2}% 
\contentsline {section}{\numberline {3}Ecuaciones}{3}{section.3}% 
\contentsline {section}{\numberline {4}Tablas}{3}{section.4}% 
\contentsline {section}{\numberline {5}Conclusiones}{6}{section.5}% 
