\relax 
\providecommand\hyper@newdestlabel[2]{}
\citation{grewal2011kalman}
\@writefile{toc}{\contentsline {section}{\numberline {2}Citas}{3}{section.2}\protected@file@percent }
\@setckpt{articles/citas}{
\setcounter{page}{4}
\setcounter{equation}{0}
\setcounter{enumi}{3}
\setcounter{enumii}{0}
\setcounter{enumiii}{0}
\setcounter{enumiv}{0}
\setcounter{footnote}{0}
\setcounter{mpfootnote}{0}
\setcounter{part}{0}
\setcounter{section}{2}
\setcounter{subsection}{0}
\setcounter{subsubsection}{0}
\setcounter{paragraph}{0}
\setcounter{subparagraph}{0}
\setcounter{figure}{0}
\setcounter{table}{0}
\setcounter{parentequation}{0}
\setcounter{Item}{3}
\setcounter{Hfootnote}{0}
\setcounter{bookmark@seq@number}{3}
\setcounter{section@level}{1}
}
