\relax 
\providecommand\hyper@newdestlabel[2]{}
\@writefile{toc}{\contentsline {section}{\numberline {3}Ecuaciones}{4}{section.3}\protected@file@percent }
\newlabel{eq:H(s)}{{1}{4}{Ecuaciones}{equation.3.1}{}}
\@setckpt{articles/ecuaciones}{
\setcounter{page}{5}
\setcounter{equation}{3}
\setcounter{enumi}{3}
\setcounter{enumii}{0}
\setcounter{enumiii}{0}
\setcounter{enumiv}{0}
\setcounter{footnote}{0}
\setcounter{mpfootnote}{0}
\setcounter{part}{0}
\setcounter{section}{3}
\setcounter{subsection}{0}
\setcounter{subsubsection}{0}
\setcounter{paragraph}{0}
\setcounter{subparagraph}{0}
\setcounter{figure}{0}
\setcounter{table}{0}
\setcounter{parentequation}{0}
\setcounter{Item}{3}
\setcounter{Hfootnote}{0}
\setcounter{bookmark@seq@number}{4}
\setcounter{section@level}{1}
}
