\relax 
\providecommand\hyper@newdestlabel[2]{}
\@writefile{lof}{\contentsline {figure}{\numberline {1}{\ignorespaces Un ejemplo de figura (top)}}{4}{figure.1}\protected@file@percent }
\newlabel{fig:wemos1}{{1}{4}{Un ejemplo de figura (top)}{figure.1}{}}
\@writefile{lof}{\contentsline {figure}{\numberline {2}{\ignorespaces Un ejemplo de figura (bottom)}}{5}{figure.2}\protected@file@percent }
\newlabel{fig:wemos2}{{2}{5}{Un ejemplo de figura (bottom)}{figure.2}{}}
\@setckpt{articles/extras}{
\setcounter{page}{6}
\setcounter{equation}{3}
\setcounter{enumi}{3}
\setcounter{enumii}{0}
\setcounter{enumiii}{0}
\setcounter{enumiv}{0}
\setcounter{footnote}{0}
\setcounter{mpfootnote}{0}
\setcounter{part}{0}
\setcounter{section}{4}
\setcounter{subsection}{0}
\setcounter{subsubsection}{0}
\setcounter{paragraph}{0}
\setcounter{subparagraph}{0}
\setcounter{figure}{2}
\setcounter{table}{0}
\setcounter{parentequation}{0}
\setcounter{Item}{3}
\setcounter{Hfootnote}{0}
\setcounter{bookmark@seq@number}{5}
\setcounter{section@level}{1}
}
