\relax 
\providecommand\hyper@newdestlabel[2]{}
\bibstyle{ieeetr}
\bibdata{biblio}
\bibcite{grewal2011kalman}{1}
\@writefile{toc}{\contentsline {section}{\numberline {5}Conclusiones}{6}{section.5}\protected@file@percent }
\@setckpt{articles/final}{
\setcounter{page}{7}
\setcounter{equation}{3}
\setcounter{enumi}{3}
\setcounter{enumii}{0}
\setcounter{enumiii}{0}
\setcounter{enumiv}{1}
\setcounter{footnote}{0}
\setcounter{mpfootnote}{0}
\setcounter{part}{0}
\setcounter{section}{5}
\setcounter{subsection}{0}
\setcounter{subsubsection}{0}
\setcounter{paragraph}{0}
\setcounter{subparagraph}{0}
\setcounter{figure}{2}
\setcounter{table}{0}
\setcounter{parentequation}{0}
\setcounter{Item}{3}
\setcounter{Hfootnote}{0}
\setcounter{bookmark@seq@number}{6}
\setcounter{section@level}{1}
}
