\relax 
\providecommand\hyper@newdestlabel[2]{}
\@writefile{toc}{\contentsline {section}{\numberline {4}Tablas}{5}{section.4}\protected@file@percent }
\@setckpt{articles/tablas}{
\setcounter{page}{6}
\setcounter{equation}{3}
\setcounter{enumi}{3}
\setcounter{enumii}{0}
\setcounter{enumiii}{0}
\setcounter{enumiv}{0}
\setcounter{footnote}{0}
\setcounter{mpfootnote}{0}
\setcounter{part}{0}
\setcounter{section}{4}
\setcounter{subsection}{0}
\setcounter{subsubsection}{0}
\setcounter{paragraph}{0}
\setcounter{subparagraph}{0}
\setcounter{figure}{0}
\setcounter{table}{0}
\setcounter{parentequation}{0}
\setcounter{Item}{3}
\setcounter{Hfootnote}{0}
\setcounter{bookmark@seq@number}{5}
\setcounter{section@level}{1}
}
